{
	"IcoMoonType": "selection",
	"icons": [
		{
			"icon": {
				"paths": [
					"M658.286 475.429q0-105.714-75.143-180.857t-180.857-75.143-180.857 75.143-75.143 180.857 75.143 180.857 180.857 75.143 180.857-75.143 75.143-180.857zM950.857 950.857q0 29.714-21.714 51.429t-51.429 21.714q-30.857 0-51.429-21.714l-196-195.429q-102.286 70.857-228 70.857-81.714 0-156.286-31.714t-128.571-85.714-85.714-128.571-31.714-156.286 31.714-156.286 85.714-128.571 128.571-85.714 156.286-31.714 156.286 31.714 128.571 85.714 85.714 128.571 31.714 156.286q0 125.714-70.857 228l196 196q21.143 21.143 21.143 51.429z"
				],
				"width": 951,
				"attrs": [],
				"isMulticolor": false,
				"tags": [
					"search"
				],
				"defaultCode": 61442,
				"grid": 14
			},
			"attrs": [],
			"properties": {
				"name": "search",
				"order": 42,
				"id": 3,
				"prevSize": 28,
				"code": 61442
			},
			"setIdx": 0,
			"setId": 1,
			"iconIdx": 2
		},
		{
			"icon": {
				"paths": [
					"M950.857 859.429v-438.857q-18.286 20.571-39.429 37.714-153.143 117.714-243.429 193.143-29.143 24.571-47.429 38.286t-49.429 27.714-58.571 14h-1.143q-27.429 0-58.571-14t-49.429-27.714-47.429-38.286q-90.286-75.429-243.429-193.143-21.143-17.143-39.429-37.714v438.857q0 7.429 5.429 12.857t12.857 5.429h841.143q7.429 0 12.857-5.429t5.429-12.857zM950.857 258.857v-14t-0.286-7.429-1.714-7.143-3.143-5.143-5.143-4.286-8-1.429h-841.143q-7.429 0-12.857 5.429t-5.429 12.857q0 96 84 162.286 110.286 86.857 229.143 181.143 3.429 2.857 20 16.857t26.286 21.429 25.429 18 28.857 15.714 24.571 5.143h1.143q11.429 0 24.571-5.143t28.857-15.714 25.429-18 26.286-21.429 20-16.857q118.857-94.286 229.143-181.143 30.857-24.571 57.429-66t26.571-75.143zM1024 237.714v621.714q0 37.714-26.857 64.571t-64.571 26.857h-841.143q-37.714 0-64.571-26.857t-26.857-64.571v-621.714q0-37.714 26.857-64.571t64.571-26.857h841.143q37.714 0 64.571 26.857t26.857 64.571z"
				],
				"attrs": [],
				"isMulticolor": false,
				"tags": [
					"envelope-o"
				],
				"defaultCode": 61443,
				"grid": 14
			},
			"attrs": [],
			"properties": {
				"name": "envelope-o",
				"order": 43,
				"id": 4,
				"prevSize": 28,
				"code": 61443
			},
			"setIdx": 0,
			"setId": 1,
			"iconIdx": 3
		},
		{
			"icon": {
				"paths": [
					"M512 950.857q-14.857 0-25.143-10.286l-356.571-344q-5.714-4.571-15.714-14.857t-31.714-37.429-38.857-55.714-30.571-69.143-13.429-78.857q0-125.714 72.571-196.571t200.571-70.857q35.429 0 72.286 12.286t68.571 33.143 54.571 39.143 43.429 38.857q20.571-20.571 43.429-38.857t54.571-39.143 68.571-33.143 72.286-12.286q128 0 200.571 70.857t72.571 196.571q0 126.286-130.857 257.143l-356 342.857q-10.286 10.286-25.143 10.286z"
				],
				"attrs": [],
				"isMulticolor": false,
				"tags": [
					"heart"
				],
				"defaultCode": 61444,
				"grid": 14
			},
			"attrs": [],
			"properties": {
				"name": "heart",
				"order": 41,
				"id": 5,
				"prevSize": 28,
				"code": 61444
			},
			"setIdx": 0,
			"setId": 1,
			"iconIdx": 4
		},
		{
			"icon": {
				"paths": [
					"M950.857 369.714q0 12.571-14.857 27.429l-207.429 202.286 49.143 285.714q0.571 4 0.571 11.429 0 12-6 20.286t-17.429 8.286q-10.857 0-22.857-6.857l-256.571-134.857-256.571 134.857q-12.571 6.857-22.857 6.857-12 0-18-8.286t-6-20.286q0-3.429 1.143-11.429l49.143-285.714-208-202.286q-14.286-15.429-14.286-27.429 0-21.143 32-26.286l286.857-41.714 128.571-260q10.857-23.429 28-23.429t28 23.429l128.571 260 286.857 41.714q32 5.143 32 26.286z"
				],
				"width": 951,
				"attrs": [],
				"isMulticolor": false,
				"tags": [
					"star"
				],
				"defaultCode": 61445,
				"grid": 14
			},
			"attrs": [],
			"properties": {
				"name": "star",
				"order": 40,
				"id": 6,
				"prevSize": 28,
				"code": 61445
			},
			"setIdx": 0,
			"setId": 1,
			"iconIdx": 5
		},
		{
			"icon": {
				"paths": [
					"M649.714 573.714l174.857-169.714-241.143-35.429-108-218.286-108 218.286-241.143 35.429 174.857 169.714-41.714 240.571 216-113.714 215.429 113.714zM950.857 369.714q0 12.571-14.857 27.429l-207.429 202.286 49.143 285.714q0.571 4 0.571 11.429 0 28.571-23.429 28.571-10.857 0-22.857-6.857l-256.571-134.857-256.571 134.857q-12.571 6.857-22.857 6.857-12 0-18-8.286t-6-20.286q0-3.429 1.143-11.429l49.143-285.714-208-202.286q-14.286-15.429-14.286-27.429 0-21.143 32-26.286l286.857-41.714 128.571-260q10.857-23.429 28-23.429t28 23.429l128.571 260 286.857 41.714q32 5.143 32 26.286z"
				],
				"width": 951,
				"attrs": [],
				"isMulticolor": false,
				"tags": [
					"star-o"
				],
				"defaultCode": 61446,
				"grid": 14
			},
			"attrs": [],
			"properties": {
				"name": "star-o",
				"order": 39,
				"id": 7,
				"prevSize": 28,
				"code": 61446
			},
			"setIdx": 0,
			"setId": 1,
			"iconIdx": 6
		},
		{
			"icon": {
				"paths": [
					"M804.571 802.857q0 68.571-41.714 108.286t-110.857 39.714h-499.429q-69.143 0-110.857-39.714t-41.714-108.286q0-30.286 2-59.143t8-62.286 15.143-62 24.571-55.714 35.429-46.286 48.857-30.571 63.714-11.429q5.143 0 24 12.286t42.571 27.429 61.714 27.429 76.286 12.286 76.286-12.286 61.714-27.429 42.571-27.429 24-12.286q34.857 0 63.714 11.429t48.857 30.571 35.429 46.286 24.571 55.714 15.143 62 8 62.286 2 59.143zM621.714 292.571q0 90.857-64.286 155.143t-155.143 64.286-155.143-64.286-64.286-155.143 64.286-155.143 155.143-64.286 155.143 64.286 64.286 155.143z"
				],
				"width": 805,
				"attrs": [],
				"isMulticolor": false,
				"tags": [
					"user"
				],
				"defaultCode": 61447,
				"grid": 14
			},
			"attrs": [],
			"properties": {
				"name": "user",
				"order": 38,
				"id": 8,
				"prevSize": 28,
				"code": 61447
			},
			"setIdx": 0,
			"setId": 1,
			"iconIdx": 7
		},
		{
			"icon": {
				"paths": [
					"M438.857 585.143v219.429q0 29.714-21.714 51.429t-51.429 21.714h-292.571q-29.714 0-51.429-21.714t-21.714-51.429v-219.429q0-29.714 21.714-51.429t51.429-21.714h292.571q29.714 0 51.429 21.714t21.714 51.429zM438.857 146.286v219.429q0 29.714-21.714 51.429t-51.429 21.714h-292.571q-29.714 0-51.429-21.714t-21.714-51.429v-219.429q0-29.714 21.714-51.429t51.429-21.714h292.571q29.714 0 51.429 21.714t21.714 51.429zM950.857 585.143v219.429q0 29.714-21.714 51.429t-51.429 21.714h-292.571q-29.714 0-51.429-21.714t-21.714-51.429v-219.429q0-29.714 21.714-51.429t51.429-21.714h292.571q29.714 0 51.429 21.714t21.714 51.429zM950.857 146.286v219.429q0 29.714-21.714 51.429t-51.429 21.714h-292.571q-29.714 0-51.429-21.714t-21.714-51.429v-219.429q0-29.714 21.714-51.429t51.429-21.714h292.571q29.714 0 51.429 21.714t21.714 51.429z"
				],
				"width": 951,
				"attrs": [],
				"isMulticolor": false,
				"tags": [
					"th-large"
				],
				"defaultCode": 61449,
				"grid": 14
			},
			"attrs": [],
			"properties": {
				"name": "th-large",
				"order": 44,
				"id": 10,
				"prevSize": 28,
				"code": 61449
			},
			"setIdx": 0,
			"setId": 1,
			"iconIdx": 9
		},
		{
			"icon": {
				"paths": [
					"M954.857 323.429q0 22.857-16 38.857l-491.429 491.429q-16 16-38.857 16t-38.857-16l-284.571-284.571q-16-16-16-38.857t16-38.857l77.714-77.714q16-16 38.857-16t38.857 16l168 168.571 374.857-375.429q16-16 38.857-16t38.857 16l77.714 77.714q16 16 16 38.857z"
				],
				"attrs": [],
				"isMulticolor": false,
				"tags": [
					"check"
				],
				"defaultCode": 61452,
				"grid": 14
			},
			"attrs": [],
			"properties": {
				"name": "check",
				"order": 36,
				"id": 13,
				"prevSize": 28,
				"code": 61452
			},
			"setIdx": 0,
			"setId": 1,
			"iconIdx": 12
		},
		{
			"icon": {
				"paths": [
					"M741.714 755.429q0 22.857-16 38.857l-77.714 77.714q-16 16-38.857 16t-38.857-16l-168-168-168 168q-16 16-38.857 16t-38.857-16l-77.714-77.714q-16-16-16-38.857t16-38.857l168-168-168-168q-16-16-16-38.857t16-38.857l77.714-77.714q16-16 38.857-16t38.857 16l168 168 168-168q16-16 38.857-16t38.857 16l77.714 77.714q16 16 16 38.857t-16 38.857l-168 168 168 168q16 16 16 38.857z"
				],
				"width": 805,
				"attrs": [],
				"isMulticolor": false,
				"tags": [
					"close",
					"remove",
					"times"
				],
				"defaultCode": 61453,
				"grid": 14
			},
			"attrs": [],
			"properties": {
				"name": "close, remove, times",
				"order": 37,
				"id": 14,
				"prevSize": 28,
				"code": 61453
			},
			"setIdx": 0,
			"setId": 1,
			"iconIdx": 13
		},
		{
			"icon": {
				"paths": [
					"M877.714 512q0 89.143-34.857 170.286t-93.714 140-140 93.714-170.286 34.857-170.286-34.857-140-93.714-93.714-140-34.857-170.286q0-104 46-196t129.429-154.286q24.571-18.286 54.571-14.286t47.714 28.571q18.286 24 14 54t-28.286 48.286q-56 42.286-86.571 103.429t-30.571 130.286q0 59.429 23.143 113.429t62.571 93.429 93.429 62.571 113.429 23.143 113.429-23.143 93.429-62.571 62.571-93.429 23.143-113.429q0-69.143-30.571-130.286t-86.571-103.429q-24-18.286-28.286-48.286t14-54q17.714-24.571 48-28.571t54.286 14.286q83.429 62.286 129.429 154.286t46 196zM512 73.143v365.714q0 29.714-21.714 51.429t-51.429 21.714-51.429-21.714-21.714-51.429v-365.714q0-29.714 21.714-51.429t51.429-21.714 51.429 21.714 21.714 51.429z"
				],
				"attrs": [],
				"isMulticolor": false,
				"tags": [
					"power-off"
				],
				"defaultCode": 61457,
				"grid": 14
			},
			"attrs": [],
			"properties": {
				"name": "power-off",
				"order": 45,
				"id": 17,
				"prevSize": 28,
				"code": 61457
			},
			"setIdx": 0,
			"setId": 1,
			"iconIdx": 16
		},
		{
			"icon": {
				"paths": [
					"M877.714 146.286v256q0 14.857-10.857 25.714t-25.714 10.857h-256q-24 0-33.714-22.857-9.714-22.286 8-39.429l78.857-78.857q-84.571-78.286-199.429-78.286-59.429 0-113.429 23.143t-93.429 62.571-62.571 93.429-23.143 113.429 23.143 113.429 62.571 93.429 93.429 62.571 113.429 23.143q68 0 128.571-29.714t102.286-84q4-5.714 13.143-6.857 8 0 14.286 5.143l78.286 78.857q5.143 4.571 5.429 11.714t-4.286 12.857q-62.286 75.429-150.857 116.857t-186.857 41.429q-89.143 0-170.286-34.857t-140-93.714-93.714-140-34.857-170.286 34.857-170.286 93.714-140 140-93.714 170.286-34.857q84 0 162.571 31.714t139.714 89.429l74.286-73.714q16.571-17.714 40-8 22.286 9.714 22.286 33.714z"
				],
				"attrs": [],
				"isMulticolor": false,
				"tags": [
					"repeat",
					"rotate-right"
				],
				"defaultCode": 61470,
				"grid": 14
			},
			"attrs": [],
			"properties": {
				"name": "repeat, rotate-right",
				"order": 47,
				"id": 30,
				"prevSize": 28,
				"code": 61470
			},
			"setIdx": 0,
			"setId": 1,
			"iconIdx": 29
		},
		{
			"icon": {
				"paths": [
					"M863.429 603.429q0 2.857-0.571 4-36.571 153.143-153.143 248.286t-273.143 95.143q-83.429 0-161.429-31.429t-139.143-89.714l-73.714 73.714q-10.857 10.857-25.714 10.857t-25.714-10.857-10.857-25.714v-256q0-14.857 10.857-25.714t25.714-10.857h256q14.857 0 25.714 10.857t10.857 25.714-10.857 25.714l-78.286 78.286q40.571 37.714 92 58.286t106.857 20.571q76.571 0 142.857-37.143t106.286-102.286q6.286-9.714 30.286-66.857 4.571-13.143 17.143-13.143h109.714q7.429 0 12.857 5.429t5.429 12.857zM877.714 146.286v256q0 14.857-10.857 25.714t-25.714 10.857h-256q-14.857 0-25.714-10.857t-10.857-25.714 10.857-25.714l78.857-78.857q-84.571-78.286-199.429-78.286-76.571 0-142.857 37.143t-106.286 102.286q-6.286 9.714-30.286 66.857-4.571 13.143-17.143 13.143h-113.714q-7.429 0-12.857-5.429t-5.429-12.857v-4q37.143-153.143 154.286-248.286t274.286-95.143q83.429 0 162.286 31.714t140 89.429l74.286-73.714q10.857-10.857 25.714-10.857t25.714 10.857 10.857 25.714z"
				],
				"attrs": [],
				"isMulticolor": false,
				"tags": [
					"refresh"
				],
				"defaultCode": 61473,
				"grid": 14
			},
			"attrs": [],
			"properties": {
				"name": "refresh",
				"order": 35,
				"id": 31,
				"prevSize": 28,
				"code": 61473
			},
			"setIdx": 0,
			"setId": 1,
			"iconIdx": 30
		},
		{
			"icon": {
				"paths": [
					"M182.857 438.857h292.571v-109.714q0-60.571-42.857-103.429t-103.429-42.857-103.429 42.857-42.857 103.429v109.714zM658.286 493.714v329.143q0 22.857-16 38.857t-38.857 16h-548.571q-22.857 0-38.857-16t-16-38.857v-329.143q0-22.857 16-38.857t38.857-16h18.286v-109.714q0-105.143 75.429-180.571t180.571-75.429 180.571 75.429 75.429 180.571v109.714h18.286q22.857 0 38.857 16t16 38.857z"
				],
				"width": 658,
				"attrs": [],
				"isMulticolor": false,
				"tags": [
					"lock"
				],
				"defaultCode": 61475,
				"grid": 14
			},
			"attrs": [],
			"properties": {
				"name": "lock",
				"order": 46,
				"id": 33,
				"prevSize": 28,
				"code": 61475
			},
			"setIdx": 0,
			"setId": 1,
			"iconIdx": 32
		},
		{
			"icon": {
				"paths": [
					"M256 256q0-30.286-21.429-51.714t-51.714-21.429-51.714 21.429-21.429 51.714 21.429 51.714 51.714 21.429 51.714-21.429 21.429-51.714zM865.714 585.143q0 30.286-21.143 51.429l-280.571 281.143q-22.286 21.143-52 21.143-30.286 0-51.429-21.143l-408.571-409.143q-21.714-21.143-36.857-57.714t-15.143-66.857v-237.714q0-29.714 21.714-51.429t51.429-21.714h237.714q30.286 0 66.857 15.143t58.286 36.857l408.571 408q21.143 22.286 21.143 52z"
				],
				"attrs": [],
				"isMulticolor": false,
				"tags": [
					"tag"
				],
				"defaultCode": 61483,
				"grid": 14
			},
			"attrs": [],
			"properties": {
				"name": "tag",
				"order": 34,
				"id": 41,
				"prevSize": 28,
				"code": 61483
			},
			"setIdx": 0,
			"setId": 1,
			"iconIdx": 40
		},
		{
			"icon": {
				"paths": [
					"M665.143 73.143q13.143 0 25.143 5.143 18.857 7.429 30 23.429t11.143 35.429v736.571q0 19.429-11.143 35.429t-30 23.429q-10.857 4.571-25.143 4.571-27.429 0-47.429-18.286l-252-242.286-252 242.286q-20.571 18.857-47.429 18.857-13.143 0-25.143-5.143-18.857-7.429-30-23.429t-11.143-35.429v-736.571q0-19.429 11.143-35.429t30-23.429q12-5.143 25.143-5.143h598.857z"
				],
				"width": 731,
				"attrs": [],
				"isMulticolor": false,
				"tags": [
					"bookmark"
				],
				"defaultCode": 61486,
				"grid": 14
			},
			"attrs": [],
			"properties": {
				"name": "bookmark",
				"order": 30,
				"id": 44,
				"prevSize": 28,
				"code": 61486
			},
			"setIdx": 0,
			"setId": 1,
			"iconIdx": 43
		},
		{
			"icon": {
				"paths": [
					"M146.286 749.714v109.714q0 7.429-5.429 12.857t-12.857 5.429h-109.714q-7.429 0-12.857-5.429t-5.429-12.857v-109.714q0-7.429 5.429-12.857t12.857-5.429h109.714q7.429 0 12.857 5.429t5.429 12.857zM146.286 530.286v109.714q0 7.429-5.429 12.857t-12.857 5.429h-109.714q-7.429 0-12.857-5.429t-5.429-12.857v-109.714q0-7.429 5.429-12.857t12.857-5.429h109.714q7.429 0 12.857 5.429t5.429 12.857zM146.286 310.857v109.714q0 7.429-5.429 12.857t-12.857 5.429h-109.714q-7.429 0-12.857-5.429t-5.429-12.857v-109.714q0-7.429 5.429-12.857t12.857-5.429h109.714q7.429 0 12.857 5.429t5.429 12.857zM1024 749.714v109.714q0 7.429-5.429 12.857t-12.857 5.429h-768q-7.429 0-12.857-5.429t-5.429-12.857v-109.714q0-7.429 5.429-12.857t12.857-5.429h768q7.429 0 12.857 5.429t5.429 12.857zM146.286 91.429v109.714q0 7.429-5.429 12.857t-12.857 5.429h-109.714q-7.429 0-12.857-5.429t-5.429-12.857v-109.714q0-7.429 5.429-12.857t12.857-5.429h109.714q7.429 0 12.857 5.429t5.429 12.857zM1024 530.286v109.714q0 7.429-5.429 12.857t-12.857 5.429h-768q-7.429 0-12.857-5.429t-5.429-12.857v-109.714q0-7.429 5.429-12.857t12.857-5.429h768q7.429 0 12.857 5.429t5.429 12.857zM1024 310.857v109.714q0 7.429-5.429 12.857t-12.857 5.429h-768q-7.429 0-12.857-5.429t-5.429-12.857v-109.714q0-7.429 5.429-12.857t12.857-5.429h768q7.429 0 12.857 5.429t5.429 12.857zM1024 91.429v109.714q0 7.429-5.429 12.857t-12.857 5.429h-768q-7.429 0-12.857-5.429t-5.429-12.857v-109.714q0-7.429 5.429-12.857t12.857-5.429h768q7.429 0 12.857 5.429t5.429 12.857z"
				],
				"attrs": [],
				"isMulticolor": false,
				"tags": [
					"list"
				],
				"defaultCode": 61498,
				"grid": 14
			},
			"attrs": [],
			"properties": {
				"name": "list",
				"order": 15,
				"id": 56,
				"prevSize": 28,
				"code": 61498
			},
			"setIdx": 0,
			"setId": 1,
			"iconIdx": 55
		},
		{
			"icon": {
				"paths": [
					"M507.429 676.571l66.286-66.286-86.857-86.857-66.286 66.286v32h54.857v54.857h32zM758.857 265.143q-9.143-9.143-18.857 0.571l-200 200q-9.714 9.714-0.571 18.857t18.857-0.571l200-200q9.714-9.714 0.571-18.857zM804.571 604.571v108.571q0 68-48.286 116.286t-116.286 48.286h-475.429q-68 0-116.286-48.286t-48.286-116.286v-475.429q0-68 48.286-116.286t116.286-48.286h475.429q36 0 66.857 14.286 8.571 4 10.286 13.143 1.714 9.714-5.143 16.571l-28 28q-8 8-18.286 4.571-13.143-3.429-25.714-3.429h-475.429q-37.714 0-64.571 26.857t-26.857 64.571v475.429q0 37.714 26.857 64.571t64.571 26.857h475.429q37.714 0 64.571-26.857t26.857-64.571v-72q0-7.429 5.143-12.571l36.571-36.571q8.571-8.571 20-4t11.429 16.571zM749.714 182.857l164.571 164.571-384 384h-164.571v-164.571zM1003.429 258.286l-52.571 52.571-164.571-164.571 52.571-52.571q16-16 38.857-16t38.857 16l86.857 86.857q16 16 16 38.857t-16 38.857z"
				],
				"attrs": [],
				"isMulticolor": false,
				"tags": [
					"edit",
					"pencil-square-o"
				],
				"defaultCode": 61508,
				"grid": 14
			},
			"attrs": [],
			"properties": {
				"name": "edit, pencil-square-o",
				"order": 48,
				"id": 65,
				"prevSize": 28,
				"code": 61508
			},
			"setIdx": 0,
			"setId": 1,
			"iconIdx": 64
		},
		{
			"icon": {
				"paths": [
					"M804.571 531.429v181.714q0 68-48.286 116.286t-116.286 48.286h-475.429q-68 0-116.286-48.286t-48.286-116.286v-475.429q0-68 48.286-116.286t116.286-48.286h475.429q36 0 66.857 14.286 8.571 4 10.286 13.143 1.714 9.714-5.143 16.571l-28 28q-5.714 5.714-13.143 5.714-1.714 0-5.143-1.143-13.143-3.429-25.714-3.429h-475.429q-37.714 0-64.571 26.857t-26.857 64.571v475.429q0 37.714 26.857 64.571t64.571 26.857h475.429q37.714 0 64.571-26.857t26.857-64.571v-145.143q0-7.429 5.143-12.571l36.571-36.571q5.714-5.714 13.143-5.714 3.429 0 6.857 1.714 11.429 4.571 11.429 16.571zM936.571 252l-465.143 465.143q-13.714 13.714-32.571 13.714t-32.571-13.714l-245.714-245.714q-13.714-13.714-13.714-32.571t13.714-32.571l62.857-62.857q13.714-13.714 32.571-13.714t32.571 13.714l150.286 150.286 369.714-369.714q13.714-13.714 32.571-13.714t32.571 13.714l62.857 62.857q13.714 13.714 13.714 32.571t-13.714 32.571z"
				],
				"width": 951,
				"attrs": [],
				"isMulticolor": false,
				"tags": [
					"check-square-o"
				],
				"defaultCode": 61510,
				"grid": 14
			},
			"attrs": [],
			"properties": {
				"name": "check-square-o",
				"order": 49,
				"id": 67,
				"prevSize": 28,
				"code": 61510
			},
			"setIdx": 0,
			"setId": 1,
			"iconIdx": 66
		},
		{
			"icon": {
				"paths": [
					"M669.143 172l-303.429 303.429 303.429 303.429q10.857 10.857 10.857 25.714t-10.857 25.714l-94.857 94.857q-10.857 10.857-25.714 10.857t-25.714-10.857l-424-424q-10.857-10.857-10.857-25.714t10.857-25.714l424-424q10.857-10.857 25.714-10.857t25.714 10.857l94.857 94.857q10.857 10.857 10.857 25.714t-10.857 25.714z"
				],
				"width": 731,
				"attrs": [],
				"isMulticolor": false,
				"tags": [
					"chevron-left"
				],
				"defaultCode": 61523,
				"grid": 14
			},
			"attrs": [],
			"properties": {
				"name": "chevron-left",
				"order": 9,
				"id": 79,
				"prevSize": 28,
				"code": 61523
			},
			"setIdx": 0,
			"setId": 1,
			"iconIdx": 78
		},
		{
			"icon": {
				"paths": [
					"M632.571 501.143l-424 424q-10.857 10.857-25.714 10.857t-25.714-10.857l-94.857-94.857q-10.857-10.857-10.857-25.714t10.857-25.714l303.429-303.429-303.429-303.429q-10.857-10.857-10.857-25.714t10.857-25.714l94.857-94.857q10.857-10.857 25.714-10.857t25.714 10.857l424 424q10.857 10.857 10.857 25.714t-10.857 25.714z"
				],
				"width": 731,
				"attrs": [],
				"isMulticolor": false,
				"tags": [
					"chevron-right"
				],
				"defaultCode": 61524,
				"grid": 14
			},
			"attrs": [],
			"properties": {
				"name": "chevron-right",
				"order": 10,
				"id": 80,
				"prevSize": 28,
				"code": 61524
			},
			"setIdx": 0,
			"setId": 1,
			"iconIdx": 79
		},
		{
			"icon": {
				"paths": [
					"M694.857 548.571v-73.143q0-14.857-10.857-25.714t-25.714-10.857h-146.286v-146.286q0-14.857-10.857-25.714t-25.714-10.857h-73.143q-14.857 0-25.714 10.857t-10.857 25.714v146.286h-146.286q-14.857 0-25.714 10.857t-10.857 25.714v73.143q0 14.857 10.857 25.714t25.714 10.857h146.286v146.286q0 14.857 10.857 25.714t25.714 10.857h73.143q14.857 0 25.714-10.857t10.857-25.714v-146.286h146.286q14.857 0 25.714-10.857t10.857-25.714zM877.714 512q0 119.429-58.857 220.286t-159.714 159.714-220.286 58.857-220.286-58.857-159.714-159.714-58.857-220.286 58.857-220.286 159.714-159.714 220.286-58.857 220.286 58.857 159.714 159.714 58.857 220.286z"
				],
				"attrs": [],
				"isMulticolor": false,
				"tags": [
					"plus-circle"
				],
				"defaultCode": 61525,
				"grid": 14
			},
			"attrs": [],
			"properties": {
				"name": "plus-circle",
				"order": 11,
				"id": 81,
				"prevSize": 28,
				"code": 61525
			},
			"setIdx": 0,
			"setId": 1,
			"iconIdx": 80
		},
		{
			"icon": {
				"paths": [
					"M694.857 548.571v-73.143q0-14.857-10.857-25.714t-25.714-10.857h-438.857q-14.857 0-25.714 10.857t-10.857 25.714v73.143q0 14.857 10.857 25.714t25.714 10.857h438.857q14.857 0 25.714-10.857t10.857-25.714zM877.714 512q0 119.429-58.857 220.286t-159.714 159.714-220.286 58.857-220.286-58.857-159.714-159.714-58.857-220.286 58.857-220.286 159.714-159.714 220.286-58.857 220.286 58.857 159.714 159.714 58.857 220.286z"
				],
				"attrs": [],
				"isMulticolor": false,
				"tags": [
					"minus-circle"
				],
				"defaultCode": 61526,
				"grid": 14
			},
			"attrs": [],
			"properties": {
				"name": "minus-circle",
				"order": 12,
				"id": 82,
				"prevSize": 28,
				"code": 61526
			},
			"setIdx": 0,
			"setId": 1,
			"iconIdx": 81
		},
		{
			"icon": {
				"paths": [
					"M656.571 641.143q0-14.857-10.857-25.714l-103.429-103.429 103.429-103.429q10.857-10.857 10.857-25.714 0-15.429-10.857-26.286l-51.429-51.429q-10.857-10.857-26.286-10.857-14.857 0-25.714 10.857l-103.429 103.429-103.429-103.429q-10.857-10.857-25.714-10.857-15.429 0-26.286 10.857l-51.429 51.429q-10.857 10.857-10.857 26.286 0 14.857 10.857 25.714l103.429 103.429-103.429 103.429q-10.857 10.857-10.857 25.714 0 15.429 10.857 26.286l51.429 51.429q10.857 10.857 26.286 10.857 14.857 0 25.714-10.857l103.429-103.429 103.429 103.429q10.857 10.857 25.714 10.857 15.429 0 26.286-10.857l51.429-51.429q10.857-10.857 10.857-26.286zM877.714 512q0 119.429-58.857 220.286t-159.714 159.714-220.286 58.857-220.286-58.857-159.714-159.714-58.857-220.286 58.857-220.286 159.714-159.714 220.286-58.857 220.286 58.857 159.714 159.714 58.857 220.286z"
				],
				"attrs": [],
				"isMulticolor": false,
				"tags": [
					"times-circle"
				],
				"defaultCode": 61527,
				"grid": 14
			},
			"attrs": [],
			"properties": {
				"name": "times-circle",
				"order": 13,
				"id": 83,
				"prevSize": 28,
				"code": 61527
			},
			"setIdx": 0,
			"setId": 1,
			"iconIdx": 82
		},
		{
			"icon": {
				"paths": [
					"M733.714 419.429q0-16-10.286-26.286l-52-51.429q-10.857-10.857-25.714-10.857t-25.714 10.857l-233.143 232.571-129.143-129.143q-10.857-10.857-25.714-10.857t-25.714 10.857l-52 51.429q-10.286 10.286-10.286 26.286 0 15.429 10.286 25.714l206.857 206.857q10.857 10.857 25.714 10.857 15.429 0 26.286-10.857l310.286-310.286q10.286-10.286 10.286-25.714zM877.714 512q0 119.429-58.857 220.286t-159.714 159.714-220.286 58.857-220.286-58.857-159.714-159.714-58.857-220.286 58.857-220.286 159.714-159.714 220.286-58.857 220.286 58.857 159.714 159.714 58.857 220.286z"
				],
				"attrs": [],
				"isMulticolor": false,
				"tags": [
					"check-circle"
				],
				"defaultCode": 61528,
				"grid": 14
			},
			"attrs": [],
			"properties": {
				"name": "check-circle",
				"order": 14,
				"id": 84,
				"prevSize": 28,
				"code": 61528
			},
			"setIdx": 0,
			"setId": 1,
			"iconIdx": 83
		},
		{
			"icon": {
				"paths": [
					"M877.714 512v73.143q0 30.286-18.571 51.714t-48.286 21.429h-402.286l167.429 168q21.714 20.571 21.714 51.429t-21.714 51.429l-42.857 43.429q-21.143 21.143-51.429 21.143-29.714 0-52-21.143l-372-372.571q-21.143-21.143-21.143-51.429 0-29.714 21.143-52l372-371.429q21.714-21.714 52-21.714 29.714 0 51.429 21.714l42.857 42.286q21.714 21.714 21.714 52t-21.714 52l-167.429 167.429h402.286q29.714 0 48.286 21.429t18.571 51.714z"
				],
				"attrs": [],
				"isMulticolor": false,
				"tags": [
					"arrow-left"
				],
				"defaultCode": 61536,
				"grid": 14
			},
			"attrs": [],
			"properties": {
				"name": "arrow-left",
				"order": 5,
				"id": 91,
				"prevSize": 28,
				"code": 61536
			},
			"setIdx": 0,
			"setId": 1,
			"iconIdx": 90
		},
		{
			"icon": {
				"paths": [
					"M841.143 548.571q0 30.857-21.143 52l-372 372q-22.286 21.143-52 21.143-29.143 0-51.429-21.143l-42.857-42.857q-21.714-21.714-21.714-52t21.714-52l167.429-167.429h-402.286q-29.714 0-48.286-21.429t-18.571-51.714v-73.143q0-30.286 18.571-51.714t48.286-21.429h402.286l-167.429-168q-21.714-20.571-21.714-51.429t21.714-51.429l42.857-42.857q21.714-21.714 51.429-21.714 30.286 0 52 21.714l372 372q21.143 20 21.143 51.429z"
				],
				"attrs": [],
				"isMulticolor": false,
				"tags": [
					"arrow-right"
				],
				"defaultCode": 61537,
				"grid": 14
			},
			"attrs": [],
			"properties": {
				"name": "arrow-right",
				"order": 6,
				"id": 92,
				"prevSize": 28,
				"code": 61537
			},
			"setIdx": 0,
			"setId": 1,
			"iconIdx": 91
		},
		{
			"icon": {
				"paths": [
					"M920.571 554.857q0 29.143-21.143 51.429l-42.857 42.857q-21.714 21.714-52 21.714-30.857 0-51.429-21.714l-168-167.429v402.286q0 29.714-21.429 48.286t-51.714 18.571h-73.143q-30.286 0-51.714-18.571t-21.429-48.286v-402.286l-168 167.429q-20.571 21.714-51.429 21.714t-51.429-21.714l-42.857-42.857q-21.714-21.714-21.714-51.429 0-30.286 21.714-52l372-372q20-21.143 51.429-21.143 30.857 0 52 21.143l372 372q21.143 22.286 21.143 52z"
				],
				"width": 951,
				"attrs": [],
				"isMulticolor": false,
				"tags": [
					"arrow-up"
				],
				"defaultCode": 61538,
				"grid": 14
			},
			"attrs": [],
			"properties": {
				"name": "arrow-up",
				"order": 7,
				"id": 93,
				"prevSize": 28,
				"code": 61538
			},
			"setIdx": 0,
			"setId": 1,
			"iconIdx": 92
		},
		{
			"icon": {
				"paths": [
					"M920.571 475.429q0 30.286-21.143 51.429l-372 372.571q-22.286 21.143-52 21.143-30.286 0-51.429-21.143l-372-372.571q-21.714-20.571-21.714-51.429 0-30.286 21.714-52l42.286-42.857q22.286-21.143 52-21.143 30.286 0 51.429 21.143l168 168v-402.286q0-29.714 21.714-51.429t51.429-21.714h73.143q29.714 0 51.429 21.714t21.714 51.429v402.286l168-168q21.143-21.143 51.429-21.143 29.714 0 52 21.143l42.857 42.857q21.143 22.286 21.143 52z"
				],
				"width": 951,
				"attrs": [],
				"isMulticolor": false,
				"tags": [
					"arrow-down"
				],
				"defaultCode": 61539,
				"grid": 14
			},
			"attrs": [],
			"properties": {
				"name": "arrow-down",
				"order": 8,
				"id": 94,
				"prevSize": 28,
				"code": 61539
			},
			"setIdx": 0,
			"setId": 1,
			"iconIdx": 93
		},
		{
			"icon": {
				"paths": [
					"M804.571 420.571v109.714q0 22.857-16 38.857t-38.857 16h-237.714v237.714q0 22.857-16 38.857t-38.857 16h-109.714q-22.857 0-38.857-16t-16-38.857v-237.714h-237.714q-22.857 0-38.857-16t-16-38.857v-109.714q0-22.857 16-38.857t38.857-16h237.714v-237.714q0-22.857 16-38.857t38.857-16h109.714q22.857 0 38.857 16t16 38.857v237.714h237.714q22.857 0 38.857 16t16 38.857z"
				],
				"width": 805,
				"attrs": [],
				"isMulticolor": false,
				"tags": [
					"plus"
				],
				"defaultCode": 61543,
				"grid": 14
			},
			"attrs": [],
			"properties": {
				"name": "plus",
				"order": 3,
				"id": 98,
				"prevSize": 28,
				"code": 61543
			},
			"setIdx": 0,
			"setId": 1,
			"iconIdx": 97
		},
		{
			"icon": {
				"paths": [
					"M804.571 420.571v109.714q0 22.857-16 38.857t-38.857 16h-694.857q-22.857 0-38.857-16t-16-38.857v-109.714q0-22.857 16-38.857t38.857-16h694.857q22.857 0 38.857 16t16 38.857z"
				],
				"width": 805,
				"attrs": [],
				"isMulticolor": false,
				"tags": [
					"minus"
				],
				"defaultCode": 61544,
				"grid": 14
			},
			"attrs": [],
			"properties": {
				"name": "minus",
				"order": 4,
				"id": 99,
				"prevSize": 28,
				"code": 61544
			},
			"setIdx": 0,
			"setId": 1,
			"iconIdx": 98
		},
		{
			"icon": {
				"paths": [
					"M961.714 760.571l-94.857 94.286q-10.857 10.857-25.714 10.857t-25.714-10.857l-303.429-303.429-303.429 303.429q-10.857 10.857-25.714 10.857t-25.714-10.857l-94.857-94.286q-10.857-10.857-10.857-26t10.857-26l424-423.429q10.857-10.857 25.714-10.857t25.714 10.857l424 423.429q10.857 10.857 10.857 26t-10.857 26z"
				],
				"attrs": [],
				"isMulticolor": false,
				"tags": [
					"chevron-up"
				],
				"defaultCode": 61559,
				"grid": 14
			},
			"attrs": [],
			"properties": {
				"name": "chevron-up",
				"order": 1,
				"id": 113,
				"prevSize": 28,
				"code": 61559
			},
			"setIdx": 0,
			"setId": 1,
			"iconIdx": 112
		},
		{
			"icon": {
				"paths": [
					"M961.714 461.714l-424 423.429q-10.857 10.857-25.714 10.857t-25.714-10.857l-424-423.429q-10.857-10.857-10.857-26t10.857-26l94.857-94.286q10.857-10.857 25.714-10.857t25.714 10.857l303.429 303.429 303.429-303.429q10.857-10.857 25.714-10.857t25.714 10.857l94.857 94.286q10.857 10.857 10.857 26t-10.857 26z"
				],
				"attrs": [],
				"isMulticolor": false,
				"tags": [
					"chevron-down"
				],
				"defaultCode": 61560,
				"grid": 14
			},
			"attrs": [],
			"properties": {
				"name": "chevron-down",
				"order": 2,
				"id": 114,
				"prevSize": 28,
				"code": 61560
			},
			"setIdx": 0,
			"setId": 1,
			"iconIdx": 113
		},
		{
			"icon": {
				"paths": [
					"M146.286 768q0-14.857-10.857-25.714t-25.714-10.857-25.714 10.857-10.857 25.714 10.857 25.714 25.714 10.857 25.714-10.857 10.857-25.714zM804.571 438.857q0-29.143-22.286-51.143t-50.857-22h-201.143q0-33.143 27.429-91.143t27.429-91.714q0-56-18.286-82.857t-73.143-26.857q-14.857 14.857-21.714 48.571t-17.429 71.714-34 62.571q-12.571 13.143-44 52-2.286 2.857-13.143 17.143t-18 23.429-19.714 24.286-22.857 25.143-22 20.286-22.857 15.429-20.286 5.143h-18.286v365.714h18.286q7.429 0 18 1.714t18.857 3.714 21.714 6.286 20 6.571 20.286 7.143 16.571 6q120.571 41.714 195.429 41.714h69.143q109.714 0 109.714-95.429 0-14.857-2.857-32 17.143-9.143 27.143-30t10-42-10.286-39.429q30.286-28.571 30.286-68 0-14.286-5.714-31.714t-14.286-27.143q18.286-0.571 30.571-26.857t12.286-46.286zM877.714 438.286q0 50.857-28 93.143 5.143 18.857 5.143 39.429 0 44-21.714 82.286 1.714 12 1.714 24.571 0 57.714-34.286 101.714 0.571 79.429-48.571 125.429t-129.714 46h-73.714q-54.857 0-108.286-12.857t-123.714-37.429q-66.286-22.857-78.857-22.857h-164.571q-30.286 0-51.714-21.429t-21.429-51.714v-365.714q0-30.286 21.429-51.714t51.714-21.429h156.571q20.571-13.714 78.286-88.571 33.143-42.857 61.143-73.143 13.714-14.286 20.286-48.857t17.429-72.286 35.429-61.714q22.286-21.143 51.429-21.143 48 0 86.286 18.571t58.286 58 20 106.286q0 53.143-27.429 109.714h100.571q59.429 0 102.857 43.429t43.429 102.286z"
				],
				"attrs": [],
				"isMulticolor": false,
				"tags": [
					"thumbs-o-up"
				],
				"defaultCode": 61575,
				"grid": 14
			},
			"attrs": [],
			"properties": {
				"name": "thumbs-o-up",
				"order": 31,
				"id": 128,
				"prevSize": 28,
				"code": 61575
			},
			"setIdx": 0,
			"setId": 1,
			"iconIdx": 127
		},
		{
			"icon": {
				"paths": [
					"M146.286 256q0-14.857-10.857-25.714t-25.714-10.857-25.714 10.857-10.857 25.714 10.857 25.714 25.714 10.857 25.714-10.857 10.857-25.714zM804.571 585.143q0-20-12.286-46.286t-30.571-26.857q8.571-9.714 14.286-27.143t5.714-31.714q0-39.429-30.286-68 10.286-18.286 10.286-39.429t-10-42-27.143-30q2.857-17.143 2.857-32 0-48.571-28-72t-77.714-23.429h-73.143q-74.857 0-195.429 41.714-2.857 1.143-16.571 6t-20.286 7.143-20 6.571-21.714 6.286-18.857 3.714-18 1.714h-18.286v365.714h18.286q9.143 0 20.286 5.143t22.857 15.429 22 20.286 22.857 25.143 19.714 24.286 18 23.429 13.143 17.143q31.429 38.857 44 52 23.429 24.571 34 62.571t17.429 71.714 21.714 48.571q54.857 0 73.143-26.857t18.286-82.857q0-33.714-27.429-91.714t-27.429-91.143h201.143q28.571 0 50.857-22t22.286-51.143zM877.714 585.714q0 58.857-43.429 102.286t-102.857 43.429h-100.571q27.429 56.571 27.429 109.714 0 67.429-20 106.286-20 39.429-58.286 58t-86.286 18.571q-29.143 0-51.429-21.143-19.429-18.857-30.857-46.857t-14.571-51.714-10-48.286-17.714-36.571q-27.429-28.571-61.143-72.571-57.714-74.857-78.286-88.571h-156.571q-30.286 0-51.714-21.429t-21.429-51.714v-365.714q0-30.286 21.429-51.714t51.714-21.429h164.571q12.571 0 78.857-22.857 73.143-25.143 127.429-37.714t114.286-12.571h64q80 0 129.429 45.143t48.857 123.429v2.857q34.286 44 34.286 101.714 0 12.571-1.714 24.571 21.714 38.286 21.714 82.286 0 20.571-5.143 39.429 28 42.286 28 93.143z"
				],
				"attrs": [],
				"isMulticolor": false,
				"tags": [
					"thumbs-o-down"
				],
				"defaultCode": 61576,
				"grid": 14
			},
			"attrs": [],
			"properties": {
				"name": "thumbs-o-down",
				"order": 32,
				"id": 129,
				"prevSize": 28,
				"code": 61576
			},
			"setIdx": 0,
			"setId": 1,
			"iconIdx": 128
		},
		{
			"icon": {
				"paths": [
					"M658.286 146.286h-585.143v709.714l292.571-280.571 50.857 48.571 241.714 232v-709.714zM665.143 73.143q13.143 0 25.143 5.143 18.857 7.429 30 23.429t11.143 35.429v736.571q0 19.429-11.143 35.429t-30 23.429q-10.857 4.571-25.143 4.571-27.429 0-47.429-18.286l-252-242.286-252 242.286q-20.571 18.857-47.429 18.857-13.143 0-25.143-5.143-18.857-7.429-30-23.429t-11.143-35.429v-736.571q0-19.429 11.143-35.429t30-23.429q12-5.143 25.143-5.143h598.857z"
				],
				"width": 731,
				"attrs": [],
				"isMulticolor": false,
				"tags": [
					"bookmark-o"
				],
				"defaultCode": 61591,
				"grid": 14
			},
			"attrs": [],
			"properties": {
				"name": "bookmark-o",
				"order": 16,
				"id": 143,
				"prevSize": 28,
				"code": 61591
			},
			"setIdx": 0,
			"setId": 1,
			"iconIdx": 142
		},
		{
			"icon": {
				"paths": [
					"M925.714 233.143q-38.286 56-92.571 95.429 0.571 8 0.571 24 0 74.286-21.714 148.286t-66 142-105.429 120.286-147.429 83.429-184.571 31.143q-154.857 0-283.429-82.857 20 2.286 44.571 2.286 128.571 0 229.143-78.857-60-1.143-107.429-36.857t-65.143-91.143q18.857 2.857 34.857 2.857 24.571 0 48.571-6.286-64-13.143-106-63.714t-42-117.429v-2.286q38.857 21.714 83.429 23.429-37.714-25.143-60-65.714t-22.286-88q0-50.286 25.143-93.143 69.143 85.143 168.286 136.286t212.286 56.857q-4.571-21.714-4.571-42.286 0-76.571 54-130.571t130.571-54q80 0 134.857 58.286 62.286-12 117.143-44.571-21.143 65.714-81.143 101.714 53.143-5.714 106.286-28.571z"
				],
				"width": 951,
				"attrs": [],
				"isMulticolor": false,
				"tags": [
					"twitter"
				],
				"defaultCode": 61593,
				"grid": 14
			},
			"attrs": [],
			"properties": {
				"name": "twitter",
				"order": 23,
				"id": 145,
				"prevSize": 28,
				"code": 61593
			},
			"setIdx": 0,
			"setId": 1,
			"iconIdx": 144
		},
		{
			"icon": {
				"paths": [
					"M548 6.857v150.857h-89.714q-49.143 0-66.286 20.571t-17.143 61.714v108h167.429l-22.286 169.143h-145.143v433.714h-174.857v-433.714h-145.714v-169.143h145.714v-124.571q0-106.286 59.429-164.857t158.286-58.571q84 0 130.286 6.857z"
				],
				"width": 585,
				"attrs": [],
				"isMulticolor": false,
				"tags": [
					"facebook",
					"facebook-f"
				],
				"defaultCode": 61594,
				"grid": 14
			},
			"attrs": [],
			"properties": {
				"name": "facebook, facebook-f",
				"order": 24,
				"id": 146,
				"prevSize": 28,
				"code": 61594
			},
			"setIdx": 0,
			"setId": 1,
			"iconIdx": 145
		},
		{
			"icon": {
				"paths": [
					"M1005.714 73.143q37.714 0 64.571 26.857t26.857 64.571v694.857q0 37.714-26.857 64.571t-64.571 26.857h-914.286q-37.714 0-64.571-26.857t-26.857-64.571v-694.857q0-37.714 26.857-64.571t64.571-26.857h914.286zM91.429 146.286q-7.429 0-12.857 5.429t-5.429 12.857v128h950.857v-128q0-7.429-5.429-12.857t-12.857-5.429h-914.286zM1005.714 877.714q7.429 0 12.857-5.429t5.429-12.857v-347.429h-950.857v347.429q0 7.429 5.429 12.857t12.857 5.429h914.286zM146.286 804.571v-73.143h146.286v73.143h-146.286zM365.714 804.571v-73.143h219.429v73.143h-219.429z"
				],
				"width": 1097,
				"attrs": [],
				"isMulticolor": false,
				"tags": [
					"credit-card"
				],
				"defaultCode": 61597,
				"grid": 14
			},
			"attrs": [],
			"properties": {
				"name": "credit-card",
				"order": 25,
				"id": 149,
				"prevSize": 28,
				"code": 61597
			},
			"setIdx": 0,
			"setId": 1,
			"iconIdx": 148
		},
		{
			"icon": {
				"paths": [
					"M438.857 73.143q119.429 0 220.286 58.857t159.714 159.714 58.857 220.286-58.857 220.286-159.714 159.714-220.286 58.857-220.286-58.857-159.714-159.714-58.857-220.286 58.857-220.286 159.714-159.714 220.286-58.857zM595.429 370.857q-1.143 0.571-5.429 5.429t-7.714 5.429q1.143 0 2.571-2.857t2.857-6.286 2-4q3.429-4 12.571-8.571 8-3.429 29.714-6.857 19.429-4.571 29.143 6.286-1.143-1.143 5.429-7.429t8.286-6.857q1.714-1.143 8.571-2.571t8.571-4.286l1.143-12.571q-6.857 0.571-10-4t-3.714-12q0 1.143-3.429 4.571 0-4-2.571-4.571t-6.571 0.571-5.143 0.571q-5.714-1.714-8.571-4.286t-4.571-9.429-2.286-8.571q-1.143-2.857-5.429-6t-5.429-6q-0.571-1.143-1.429-3.143t-1.714-3.714-2.286-3.143-3.143-1.429-4 2.857-4.286 5.714-2.571 2.857q-1.714-1.143-3.429-0.857t-2.571 0.571-2.571 1.714-2.857 2q-1.714 1.143-4.857 1.714t-4.857 1.143q8.571-2.857-0.571-6.286-5.714-2.286-9.143-1.714 5.143-2.286 4.286-6.857t-4.857-8h2.857q-0.571-2.286-4.857-4.857t-10-4.857-7.429-3.429q-4.571-2.857-19.429-5.429t-18.857-0.286q-2.857 3.429-2.571 6t2.286 8 2 7.143q0.571 3.429-3.143 7.429t-3.714 6.857q0 4 8 8.857t5.714 12.286q-1.714 4.571-9.143 9.143t-9.143 6.857q-2.857 4.571-0.857 10.571t6 9.429q1.143 1.143 0.857 2.286t-2 2.571-3.143 2.286-3.714 2l-1.714 1.143q-6.286 2.857-11.714-3.429t-7.714-14.857q-4-14.286-9.143-17.143-13.143-4.571-16.571 0.571-2.857-7.429-23.429-14.857-14.286-5.143-33.143-2.286 3.429-0.571 0-8.571-4-8.571-10.857-6.857 1.714-3.429 2.286-10t0.571-7.714q1.714-7.429 6.857-13.143 0.571-0.571 4-4.857t5.429-7.714 0.286-3.429q20 2.286 28.571-6.286 2.857-2.857 6.571-9.714t6-9.714q5.143-3.429 8-3.143t8.286 3.143 8.286 2.857q8 0.571 8.857-6.286t-4.286-11.429q6.857 0.571 1.714-9.714-2.857-4-4.571-5.143-6.857-2.286-15.429 2.857-4.571 2.286 1.143 4.571-0.571-0.571-5.429 6t-9.429 10-9.143-2.857q-0.571-0.571-3.143-7.714t-5.429-7.714q-4.571 0-9.143 8.571 1.714-4.571-6.286-8.571t-13.714-4.571q10.857-6.857-4.571-15.429-4-2.286-11.714-2.857t-11.143 2.286q-2.857 4-3.143 6.571t2.857 4.571 6 3.143 6.571 2.286 4.857 1.714q8 5.714 4.571 8-1.143 0.571-4.857 2t-6.571 2.571-3.429 2.286q-1.714 2.286 0 8t-1.143 8q-2.857-2.857-5.143-10t-4-9.429q4 5.143-14.286 3.429l-5.714-0.571q-2.286 0-9.143 1.143t-11.714 0.571-7.714-4.571q-2.286-4.571 0-11.429 0.571-2.286 2.286-1.143-2.286-1.714-6.286-5.429t-5.714-4.857q-26.286 8.571-53.714 23.429 3.429 0.571 6.857-0.571 2.857-1.143 7.429-3.714t5.714-3.143q19.429-8 24-4l2.857-2.857q8 9.143 11.429 14.286-4-2.286-17.143-0.571-11.429 3.429-12.571 6.857 4 6.857 2.857 10.286-2.286-1.714-6.571-5.714t-8.286-6.286-8.571-2.857q-9.143 0-12.571 0.571-83.429 45.714-134.286 126.857 4 4 6.857 4.571 2.286 0.571 2.857 5.143t1.429 6.286 6.571-1.714q5.143 4.571 1.714 10.857 0.571-0.571 25.143 15.429 10.857 9.714 12 12 1.714 6.286-5.714 10.286-0.571-1.143-5.143-5.143t-5.143-2.286q-1.714 2.857 0.286 10.571t6 7.143q-4 0-5.429 9.143t-1.429 20.286-0.571 13.429l1.143 0.571q-1.714 6.857 3.143 19.714t12.286 11.143q-7.429 1.714 11.429 24.571 3.429 4.571 4.571 5.143 1.714 1.143 6.857 4.286t8.571 5.714 5.714 6q2.286 2.857 5.714 12.857t8 13.429q-1.143 3.429 5.429 11.429t6 13.143q-0.571 0-1.429 0.571t-1.429 0.571q1.714 4 8.857 8t8.857 7.429q0.571 1.714 1.143 5.714t1.714 6.286 4.571 1.143q1.143-11.429-13.714-35.429-8.571-14.286-9.714-16.571-1.714-2.857-3.143-8.857t-2.571-8.286q1.143 0 3.429 0.857t4.857 2 4.286 2.286 1.143 1.714q-1.714 4 1.143 10t6.857 10.571 9.714 10.857 6.857 7.429q3.429 3.429 8 11.143t0 7.714q5.143 0 11.429 5.714t9.714 11.429q2.857 4.571 4.571 14.857t2.857 13.714q1.143 4 4.857 7.714t7.143 5.429l9.143 4.571t7.429 4q2.857 1.143 10.571 6t12.286 6.571q5.714 2.286 9.143 2.286t8.286-1.429 7.714-2q8.571-1.143 16.571 8.571t12 12q20.571 10.857 31.429 6.286-1.143 0.571 0.286 4.286t4.571 8.857 5.143 8.286 3.143 4.857q2.857 3.429 10.286 8.571t10.286 8.571q3.429-2.286 4-5.143-1.714 4.571 4 11.429t10.286 5.714q8-1.714 8-18.286-17.714 8.571-28-10.286 0-0.571-1.429-3.143t-2.286-4.857-1.429-4.857 0-4.286 2.857-1.714q5.143 0 5.714-2t-1.143-7.143-2.286-7.429q-0.571-4.571-6.286-11.429t-6.857-8.571q-2.857 5.143-9.143 4.571t-9.143-5.143q0 0.571-0.857 3.143t-0.857 3.714q-7.429 0-8.571-0.571 0.571-1.714 1.429-10t2-12.857q0.571-2.286 3.143-6.857t4.286-8.286 2.286-7.143-2.571-5.429-10-1.429q-10.857 0.571-14.857 11.429-0.571 1.714-1.714 6t-2.857 6.571-5.143 4q-4 1.714-13.714 1.143t-13.714-2.857q-7.429-4.571-12.857-16.571t-5.429-21.143q0-5.714 1.429-15.143t1.714-14.286-3.143-14q1.714-1.143 5.143-5.429t5.714-6q1.143-0.571 2.571-0.857t2.571 0 2.286-0.857 1.714-3.429q-0.571-0.571-2.286-1.714-1.714-1.714-2.286-1.714 4 1.714 16.286-0.857t15.714 0.857q8.571 6.286 12.571-1.143 0-0.571-1.429-5.429t-0.286-7.714q2.857 15.429 16.571 5.143 1.714 1.714 8.857 2.857t10 2.857q1.714 1.143 4 3.143t3.143 2.571 2.857-0.286 4.857-3.714q5.714 8 6.857 13.714 6.286 22.857 10.857 25.143 4 1.714 6.286 1.143t2.571-5.429 0-8-0.857-7.143l-0.571-4.571v-10.286l-0.571-4.571q-8.571-1.714-10.571-6.857t0.857-10.571 8.571-10.571q0.571-0.571 4.571-2t8.857-3.714 7.143-4.571q12-10.857 8.571-20 4 0 6.286-5.143-0.571 0-2.857-1.714t-4.286-2.857-2.571-1.143q5.143-2.857 1.143-9.143 2.857-1.714 4.286-6.286t4.286-5.714q5.143 6.857 12 1.143 4-4.571 0.571-9.143 2.857-4 11.714-6t10.571-5.429q4 1.143 4.571-1.143t0.571-6.857 1.714-6.857q2.286-2.857 8.571-5.143t7.429-2.857l9.714-6.286q1.714-2.286 0-2.286 10.286 1.143 17.714-6.286 5.714-6.286-3.429-11.429 1.714-3.429-1.714-5.429t-8.571-3.143q1.714-0.571 6.571-0.286t6-0.857q8.571-5.714-4-9.143-9.714-2.857-24.571 6.857zM502.286 872q117.714-20.571 200.571-108-1.714-1.714-7.143-2.571t-7.143-2q-10.286-4-13.714-4.571 0.571-4-1.429-7.429t-4.571-5.143-7.143-4.571-6.286-4q-1.143-1.143-4-3.429t-4-3.143-4.286-2.571-4.857-1.143-5.714 0.571l-1.714 0.571q-1.714 0.571-3.143 1.429t-3.143 1.714-2.286 1.714 0 1.429q-12-9.714-20.571-12.571-2.857-0.571-6.286-3.143t-6-4-5.714-0.857-6.571 4q-2.857 2.857-3.429 8.571t-1.143 7.429q-4-2.857 0-10t1.143-10.571q-1.714-3.429-6-2.571t-6.857 2.571-6.571 4.857-5.143 3.714-4.857 3.143-4.857 4.286q-1.714 2.286-3.429 6.857t-2.857 6.286q-1.143-2.286-6.571-3.714t-5.429-3.143q1.143 5.714 2.286 20t2.857 21.714q4 17.714-6.857 27.429-15.429 14.286-16.571 22.857-2.286 12.571 6.857 14.857 0 4-4.571 11.714t-4 12.286q0 3.429 1.143 9.143z"
				],
				"attrs": [],
				"isMulticolor": false,
				"tags": [
					"globe"
				],
				"defaultCode": 61612,
				"grid": 14
			},
			"attrs": [],
			"properties": {
				"name": "globe",
				"order": 33,
				"id": 163,
				"prevSize": 28,
				"code": 61612
			},
			"setIdx": 0,
			"setId": 1,
			"iconIdx": 162
		},
		{
			"icon": {
				"paths": [
					"M801.714 168.571q9.714 23.429-8 40l-281.714 281.714v424q0 24-22.286 33.714-7.429 2.857-14.286 2.857-15.429 0-25.714-10.857l-146.286-146.286q-10.857-10.857-10.857-25.714v-277.714l-281.714-281.714q-17.714-16.571-8-40 9.714-22.286 33.714-22.286h731.429q24 0 33.714 22.286z"
				],
				"width": 805,
				"attrs": [],
				"isMulticolor": false,
				"tags": [
					"filter"
				],
				"defaultCode": 61616,
				"grid": 14
			},
			"attrs": [],
			"properties": {
				"name": "filter",
				"order": 19,
				"id": 166,
				"prevSize": 28,
				"code": 61616
			},
			"setIdx": 0,
			"setId": 1,
			"iconIdx": 165
		},
		{
			"icon": {
				"paths": [
					"M832 694.857q0-22.857-16-38.857l-118.857-118.857q-16-16-38.857-16-24 0-41.143 18.286 1.714 1.714 10.857 10.571t12.286 12.286 8.571 10.857 7.429 14.571 2 15.714q0 22.857-16 38.857t-38.857 16q-8.571 0-15.714-2t-14.571-7.429-10.857-8.571-12.286-12.286-10.571-10.857q-18.857 17.714-18.857 41.714 0 22.857 16 38.857l117.714 118.286q15.429 15.429 38.857 15.429 22.857 0 38.857-14.857l84-83.429q16-16 16-38.286zM430.286 292q0-22.857-16-38.857l-117.714-118.286q-16-16-38.857-16-22.286 0-38.857 15.429l-84 83.429q-16 16-16 38.286 0 22.857 16 38.857l118.857 118.857q15.429 15.429 38.857 15.429 24 0 41.143-17.714-1.714-1.714-10.857-10.571t-12.286-12.286-8.571-10.857-7.429-14.571-2-15.714q0-22.857 16-38.857t38.857-16q8.571 0 15.714 2t14.571 7.429 10.857 8.571 12.286 12.286 10.571 10.857q18.857-17.714 18.857-41.714zM941.714 694.857q0 68.571-48.571 116l-84 83.429q-47.429 47.429-116 47.429-69.143 0-116.571-48.571l-117.714-118.286q-47.429-47.429-47.429-116 0-70.286 50.286-119.429l-50.286-50.286q-49.143 50.286-118.857 50.286-68.571 0-116.571-48l-118.857-118.857q-48-48-48-116.571t48.571-116l84-83.429q47.429-47.429 116-47.429 69.143 0 116.571 48.571l117.714 118.286q47.429 47.429 47.429 116 0 70.286-50.286 119.429l50.286 50.286q49.143-50.286 118.857-50.286 68.571 0 116.571 48l118.857 118.857q48 48 48 116.571z"
				],
				"width": 951,
				"attrs": [],
				"isMulticolor": false,
				"tags": [
					"chain",
					"link"
				],
				"defaultCode": 61633,
				"grid": 14
			},
			"attrs": [],
			"properties": {
				"name": "chain, link",
				"order": 17,
				"id": 170,
				"prevSize": 28,
				"code": 61633
			},
			"setIdx": 0,
			"setId": 1,
			"iconIdx": 169
		},
		{
			"icon": {
				"paths": [
					"M292.571 786.286v-109.714q0-8-5.143-13.143t-13.143-5.143h-182.857q-8 0-13.143 5.143t-5.143 13.143v109.714q0 8 5.143 13.143t13.143 5.143h182.857q8 0 13.143-5.143t5.143-13.143zM292.571 566.857v-109.714q0-8-5.143-13.143t-13.143-5.143h-182.857q-8 0-13.143 5.143t-5.143 13.143v109.714q0 8 5.143 13.143t13.143 5.143h182.857q8 0 13.143-5.143t5.143-13.143zM585.143 786.286v-109.714q0-8-5.143-13.143t-13.143-5.143h-182.857q-8 0-13.143 5.143t-5.143 13.143v109.714q0 8 5.143 13.143t13.143 5.143h182.857q8 0 13.143-5.143t5.143-13.143zM292.571 347.429v-109.714q0-8-5.143-13.143t-13.143-5.143h-182.857q-8 0-13.143 5.143t-5.143 13.143v109.714q0 8 5.143 13.143t13.143 5.143h182.857q8 0 13.143-5.143t5.143-13.143zM585.143 566.857v-109.714q0-8-5.143-13.143t-13.143-5.143h-182.857q-8 0-13.143 5.143t-5.143 13.143v109.714q0 8 5.143 13.143t13.143 5.143h182.857q8 0 13.143-5.143t5.143-13.143zM877.714 786.286v-109.714q0-8-5.143-13.143t-13.143-5.143h-182.857q-8 0-13.143 5.143t-5.143 13.143v109.714q0 8 5.143 13.143t13.143 5.143h182.857q8 0 13.143-5.143t5.143-13.143zM585.143 347.429v-109.714q0-8-5.143-13.143t-13.143-5.143h-182.857q-8 0-13.143 5.143t-5.143 13.143v109.714q0 8 5.143 13.143t13.143 5.143h182.857q8 0 13.143-5.143t5.143-13.143zM877.714 566.857v-109.714q0-8-5.143-13.143t-13.143-5.143h-182.857q-8 0-13.143 5.143t-5.143 13.143v109.714q0 8 5.143 13.143t13.143 5.143h182.857q8 0 13.143-5.143t5.143-13.143zM877.714 347.429v-109.714q0-8-5.143-13.143t-13.143-5.143h-182.857q-8 0-13.143 5.143t-5.143 13.143v109.714q0 8 5.143 13.143t13.143 5.143h182.857q8 0 13.143-5.143t5.143-13.143zM950.857 164.571v621.714q0 37.714-26.857 64.571t-64.571 26.857h-768q-37.714 0-64.571-26.857t-26.857-64.571v-621.714q0-37.714 26.857-64.571t64.571-26.857h768q37.714 0 64.571 26.857t26.857 64.571z"
				],
				"width": 951,
				"attrs": [],
				"isMulticolor": false,
				"tags": [
					"table"
				],
				"defaultCode": 61646,
				"grid": 14
			},
			"attrs": [],
			"properties": {
				"name": "table",
				"order": 18,
				"id": 183,
				"prevSize": 28,
				"code": 61646
			},
			"setIdx": 0,
			"setId": 1,
			"iconIdx": 182
		},
		{
			"icon": {
				"paths": [
					"M358.286 310.857q0 7.429-5.714 13.143l-224.571 224.571 224.571 224.571q5.714 5.714 5.714 13.143t-5.714 13.143l-28.571 28.571q-5.714 5.714-13.143 5.714t-13.143-5.714l-266.286-266.286q-5.714-5.714-5.714-13.143t5.714-13.143l266.286-266.286q5.714-5.714 13.143-5.714t13.143 5.714l28.571 28.571q5.714 5.714 5.714 13.143z"
				],
				"width": 366,
				"attrs": [],
				"isMulticolor": false,
				"tags": [
					"angle-left"
				],
				"defaultCode": 61700,
				"grid": 14
			},
			"attrs": [],
			"properties": {
				"name": "angle-left",
				"order": 50,
				"id": 233,
				"prevSize": 28,
				"code": 61700
			},
			"setIdx": 0,
			"setId": 1,
			"iconIdx": 232
		},
		{
			"icon": {
				"paths": [
					"M340 548.571q0 7.429-5.714 13.143l-266.286 266.286q-5.714 5.714-13.143 5.714t-13.143-5.714l-28.571-28.571q-5.714-5.714-5.714-13.143t5.714-13.143l224.571-224.571-224.571-224.571q-5.714-5.714-5.714-13.143t5.714-13.143l28.571-28.571q5.714-5.714 13.143-5.714t13.143 5.714l266.286 266.286q5.714 5.714 5.714 13.143z"
				],
				"width": 366,
				"attrs": [],
				"isMulticolor": false,
				"tags": [
					"angle-right"
				],
				"defaultCode": 61701,
				"grid": 14
			},
			"attrs": [],
			"properties": {
				"name": "angle-right",
				"order": 51,
				"id": 234,
				"prevSize": 28,
				"code": 61701
			},
			"setIdx": 0,
			"setId": 1,
			"iconIdx": 233
		},
		{
			"icon": {
				"paths": [
					"M614.286 676.571q0 7.429-5.714 13.143l-28.571 28.571q-5.714 5.714-13.143 5.714t-13.143-5.714l-224.571-224.571-224.571 224.571q-5.714 5.714-13.143 5.714t-13.143-5.714l-28.571-28.571q-5.714-5.714-5.714-13.143t5.714-13.143l266.286-266.286q5.714-5.714 13.143-5.714t13.143 5.714l266.286 266.286q5.714 5.714 5.714 13.143z"
				],
				"width": 658,
				"attrs": [],
				"isMulticolor": false,
				"tags": [
					"angle-up"
				],
				"defaultCode": 61702,
				"grid": 14
			},
			"attrs": [],
			"properties": {
				"name": "angle-up",
				"order": 52,
				"id": 235,
				"prevSize": 28,
				"code": 61702
			},
			"setIdx": 0,
			"setId": 1,
			"iconIdx": 234
		},
		{
			"icon": {
				"paths": [
					"M614.286 420.571q0 7.429-5.714 13.143l-266.286 266.286q-5.714 5.714-13.143 5.714t-13.143-5.714l-266.286-266.286q-5.714-5.714-5.714-13.143t5.714-13.143l28.571-28.571q5.714-5.714 13.143-5.714t13.143 5.714l224.571 224.571 224.571-224.571q5.714-5.714 13.143-5.714t13.143 5.714l28.571 28.571q5.714 5.714 5.714 13.143z"
				],
				"width": 658,
				"attrs": [],
				"isMulticolor": false,
				"tags": [
					"angle-down"
				],
				"defaultCode": 61703,
				"grid": 14
			},
			"attrs": [],
			"properties": {
				"name": "angle-down",
				"order": 53,
				"id": 236,
				"prevSize": 28,
				"code": 61703
			},
			"setIdx": 0,
			"setId": 1,
			"iconIdx": 235
		},
		{
			"icon": {
				"paths": [
					"M648 614.286q-21.143 69.143-78.857 111.429t-130.286 42.286-130.286-42.286-78.857-111.429q-4.571-14.286 2.286-27.714t21.714-18q14.286-4.571 27.714 2.286t18 21.714q14.286 45.714 52.857 74t86.571 28.286 86.571-28.286 52.857-74q4.571-14.857 18.286-21.714t28-2.286 21.143 18 2.286 27.714zM365.714 365.714q0 30.286-21.429 51.714t-51.714 21.429-51.714-21.429-21.429-51.714 21.429-51.714 51.714-21.429 51.714 21.429 21.429 51.714zM658.286 365.714q0 30.286-21.429 51.714t-51.714 21.429-51.714-21.429-21.429-51.714 21.429-51.714 51.714-21.429 51.714 21.429 21.429 51.714zM804.571 512q0-74.286-29.143-142t-78-116.571-116.571-78-142-29.143-142 29.143-116.571 78-78 116.571-29.143 142 29.143 142 78 116.571 116.571 78 142 29.143 142-29.143 116.571-78 78-116.571 29.143-142zM877.714 512q0 119.429-58.857 220.286t-159.714 159.714-220.286 58.857-220.286-58.857-159.714-159.714-58.857-220.286 58.857-220.286 159.714-159.714 220.286-58.857 220.286 58.857 159.714 159.714 58.857 220.286z"
				],
				"attrs": [],
				"isMulticolor": false,
				"tags": [
					"smile-o"
				],
				"defaultCode": 61720,
				"grid": 14
			},
			"attrs": [],
			"properties": {
				"name": "smile-o",
				"order": 54,
				"id": 250,
				"prevSize": 28,
				"code": 61720
			},
			"setIdx": 0,
			"setId": 1,
			"iconIdx": 249
		},
		{
			"icon": {
				"paths": [
					"M648 702.286q4.571 14.286-2.286 27.714t-21.143 18-28-2.286-18.286-21.714q-14.286-45.714-52.857-74t-86.571-28.286-86.571 28.286-52.857 74q-4.571 14.857-18 21.714t-27.714 2.286q-14.857-4.571-21.714-18t-2.286-27.714q21.143-69.143 78.857-111.429t130.286-42.286 130.286 42.286 78.857 111.429zM365.714 365.714q0 30.286-21.429 51.714t-51.714 21.429-51.714-21.429-21.429-51.714 21.429-51.714 51.714-21.429 51.714 21.429 21.429 51.714zM658.286 365.714q0 30.286-21.429 51.714t-51.714 21.429-51.714-21.429-21.429-51.714 21.429-51.714 51.714-21.429 51.714 21.429 21.429 51.714zM804.571 512q0-74.286-29.143-142t-78-116.571-116.571-78-142-29.143-142 29.143-116.571 78-78 116.571-29.143 142 29.143 142 78 116.571 116.571 78 142 29.143 142-29.143 116.571-78 78-116.571 29.143-142zM877.714 512q0 119.429-58.857 220.286t-159.714 159.714-220.286 58.857-220.286-58.857-159.714-159.714-58.857-220.286 58.857-220.286 159.714-159.714 220.286-58.857 220.286 58.857 159.714 159.714 58.857 220.286z"
				],
				"attrs": [],
				"isMulticolor": false,
				"tags": [
					"frown-o"
				],
				"defaultCode": 61721,
				"grid": 14
			},
			"attrs": [],
			"properties": {
				"name": "frown-o",
				"order": 55,
				"id": 251,
				"prevSize": 28,
				"code": 61721
			},
			"setIdx": 0,
			"setId": 1,
			"iconIdx": 250
		},
		{
			"icon": {
				"paths": [
					"M658.286 621.714q0 14.857-10.857 25.714t-25.714 10.857h-365.714q-14.857 0-25.714-10.857t-10.857-25.714 10.857-25.714 25.714-10.857h365.714q14.857 0 25.714 10.857t10.857 25.714zM365.714 365.714q0 30.286-21.429 51.714t-51.714 21.429-51.714-21.429-21.429-51.714 21.429-51.714 51.714-21.429 51.714 21.429 21.429 51.714zM658.286 365.714q0 30.286-21.429 51.714t-51.714 21.429-51.714-21.429-21.429-51.714 21.429-51.714 51.714-21.429 51.714 21.429 21.429 51.714zM804.571 512q0-74.286-29.143-142t-78-116.571-116.571-78-142-29.143-142 29.143-116.571 78-78 116.571-29.143 142 29.143 142 78 116.571 116.571 78 142 29.143 142-29.143 116.571-78 78-116.571 29.143-142zM877.714 512q0 119.429-58.857 220.286t-159.714 159.714-220.286 58.857-220.286-58.857-159.714-159.714-58.857-220.286 58.857-220.286 159.714-159.714 220.286-58.857 220.286 58.857 159.714 159.714 58.857 220.286z"
				],
				"attrs": [],
				"isMulticolor": false,
				"tags": [
					"meh-o"
				],
				"defaultCode": 61722,
				"grid": 14
			},
			"attrs": [],
			"properties": {
				"name": "meh-o",
				"order": 56,
				"id": 252,
				"prevSize": 28,
				"code": 61722
			},
			"setIdx": 0,
			"setId": 1,
			"iconIdx": 251
		},
		{
			"icon": {
				"paths": [
					"M603.429 438.857q22.857 0 38.857 16t16 38.857v329.143q0 22.857-16 38.857t-38.857 16h-548.571q-22.857 0-38.857-16t-16-38.857v-329.143q0-22.857 16-38.857t38.857-16h18.286v-182.857q0-105.714 75.143-180.857t180.857-75.143 180.857 75.143 75.143 180.857q0 14.857-10.857 25.714t-25.714 10.857h-36.571q-14.857 0-25.714-10.857t-10.857-25.714q0-60.571-42.857-103.429t-103.429-42.857-103.429 42.857-42.857 103.429v182.857h420.571z"
				],
				"width": 658,
				"attrs": [],
				"isMulticolor": false,
				"tags": [
					"unlock-alt"
				],
				"defaultCode": 61758,
				"grid": 14
			},
			"attrs": [],
			"properties": {
				"name": "unlock-alt",
				"order": 21,
				"id": 286,
				"prevSize": 28,
				"code": 61758
			},
			"setIdx": 0,
			"setId": 1,
			"iconIdx": 285
		},
		{
			"icon": {
				"paths": [
					"M838.857 272q8 8 16 20.571h-269.714v-269.714q12.571 8 20.571 16zM566.857 365.714h310.857v603.429q0 22.857-16 38.857t-38.857 16h-768q-22.857 0-38.857-16t-16-38.857v-914.286q0-22.857 16-38.857t38.857-16h457.143v310.857q0 22.857 16 38.857t38.857 16zM658.286 786.286v-36.571q0-8-5.143-13.143t-13.143-5.143h-402.286q-8 0-13.143 5.143t-5.143 13.143v36.571q0 8 5.143 13.143t13.143 5.143h402.286q8 0 13.143-5.143t5.143-13.143zM658.286 640v-36.571q0-8-5.143-13.143t-13.143-5.143h-402.286q-8 0-13.143 5.143t-5.143 13.143v36.571q0 8 5.143 13.143t13.143 5.143h402.286q8 0 13.143-5.143t5.143-13.143zM658.286 493.714v-36.571q0-8-5.143-13.143t-13.143-5.143h-402.286q-8 0-13.143 5.143t-5.143 13.143v36.571q0 8 5.143 13.143t13.143 5.143h402.286q8 0 13.143-5.143t5.143-13.143z"
				],
				"attrs": [],
				"isMulticolor": false,
				"tags": [
					"file-text"
				],
				"defaultCode": 61788,
				"grid": 14
			},
			"attrs": [],
			"properties": {
				"name": "file-text",
				"order": 22,
				"id": 314,
				"prevSize": 28,
				"code": 61788
			},
			"setIdx": 0,
			"setId": 1,
			"iconIdx": 313
		},
		{
			"icon": {
				"paths": [
					"M154.286 460.571q-4.571-10.857-4.571-29.714 0-11.429 6.286-28t13.714-25.714q-0.571-12.571 4.286-30.286t12.857-24.571q0-79.429 52.857-164.857t124.286-119.714q79.429-37.714 185.143-37.714 76 0 152 31.429 28 12 51.429 27.429t40.571 32 31.429 38.857 24 42.286 18.571 48.286 14.571 51.143 12.571 56l0.571 2.857q31.429 47.429 31.429 85.714 0 8-5.143 22.857t-5.143 21.714q0 0.571 0.857 2t2 2.857 1.143 2q44 65.143 68.857 122.571t24.857 119.143q0 24.571-11.143 57.143t-31.714 32.571q-5.143 0-11.143-4.286t-10.857-10-10.857-14.857-9.143-15.143-7.714-14.857-5.143-10q-0.571-0.571-1.714-0.571l-2.857 2.286q-33.714 88-75.429 127.429 11.429 11.429 35.143 22t39.429 23.714 20.286 37.143q-1.143 2.286-2.286 9.143t-4 10.286q-36.571 55.429-172.571 55.429-30.286 0-63.143-5.143t-56-11.429-59.714-17.143q-8.571-2.857-13.143-4-8-2.286-26.286-2.571t-22.857-0.857q-23.429 25.714-72.857 37.143t-96.286 11.429q-20 0-39.429-0.857t-53.143-5.143-57.714-11.714-42.571-22.857-18.571-36.571q0-22.857 5.714-34t23.429-27.714q6.286-1.143 23.143-7.429t28.286-6.857q2.286 0 8-1.143 1.143-1.143 1.143-2.286l-1.143-1.714q-27.429-6.286-61.714-60.286t-41.714-89.429l-2.857-1.714q-2.286 0-6.857 11.429-10.286 23.429-31.143 42.571t-44.286 21.429h-0.571q-2.286 0-3.429-2.571t-2.857-3.143q-13.143-30.857-13.143-57.143 0-157.143 144-266.286z"
				],
				"attrs": [],
				"isMulticolor": false,
				"tags": [
					"qq"
				],
				"defaultCode": 61910,
				"grid": 14
			},
			"attrs": [],
			"properties": {
				"name": "qq",
				"order": 59,
				"id": 428,
				"prevSize": 28,
				"code": 61910
			},
			"setIdx": 0,
			"setId": 1,
			"iconIdx": 427
		},
		{
			"icon": {
				"paths": [
					"M331.429 263.429q0-23.429-14.286-37.714t-37.714-14.286q-24.571 0-43.429 14.571t-18.857 37.429q0 22.286 18.857 36.857t43.429 14.571q23.429 0 37.714-14t14.286-37.429zM756 553.143q0-16-14.571-28.571t-37.429-12.571q-15.429 0-28.286 12.857t-12.857 28.286q0 16 12.857 28.857t28.286 12.857q22.857 0 37.429-12.571t14.571-29.143zM621.143 263.429q0-23.429-14-37.714t-37.429-14.286q-24.571 0-43.429 14.571t-18.857 37.429q0 22.286 18.857 36.857t43.429 14.571q23.429 0 37.429-14t14-37.429zM984 553.143q0-16-14.857-28.571t-37.143-12.571q-15.429 0-28.286 12.857t-12.857 28.286q0 16 12.857 28.857t28.286 12.857q22.286 0 37.143-12.571t14.857-29.143zM832 326.286q-17.714-2.286-40-2.286-96.571 0-177.714 44t-127.714 119.143-46.571 164.286q0 44.571 13.143 86.857-20 1.714-38.857 1.714-14.857 0-28.571-0.857t-31.429-3.714-25.429-4-31.143-6-28.571-6l-144.571 72.571 41.143-124.571q-165.714-116-165.714-280 0-96.571 55.714-177.714t150.857-127.714 207.714-46.571q100.571 0 190 37.714t149.714 104.286 78 148.857zM1170.286 646.857q0 66.857-39.143 127.714t-106 110.571l31.429 103.429-113.714-62.286q-85.714 21.143-124.571 21.143-96.571 0-177.714-40.286t-127.714-109.429-46.571-150.857 46.571-150.857 127.714-109.429 177.714-40.286q92 0 173.143 40.286t130 109.714 48.857 150.571z"
				],
				"width": 1170,
				"attrs": [],
				"isMulticolor": false,
				"tags": [
					"wechat",
					"weixin"
				],
				"defaultCode": 61911,
				"grid": 14
			},
			"attrs": [],
			"properties": {
				"name": "wechat, weixin",
				"order": 58,
				"id": 429,
				"prevSize": 28,
				"code": 61911
			},
			"setIdx": 0,
			"setId": 1,
			"iconIdx": 428
		},
		{
			"icon": {
				"paths": [
					"M635.429 254.857q0-90.857-135.429-90.857h-40q-18.286 0-34 12.286t-19.714 30l-36 157.714q-1.143 2.857-1.143 9.143 0 13.714 9.714 22.571t23.429 8.857h30.286q39.429 0 73.429-7.429t64.286-23.429 47.714-46.571 17.429-72.286zM980.571 341.714q0 151.429-125.714 244.571-125.143 92-349.714 92h-34.857q-18.286 0-33.714 12.286t-19.429 30l-41.714 180.571q-4.571 20.571-23.143 35.143t-39.714 14.571h-121.714q-17.714 0-30.286-11.429t-12.571-29.143q0-5.714 7.429-37.143h86.286q19.429 0 36.571-13.429t21.714-32.286l41.714-180.571q4.571-18.857 21.429-32.571t36.286-13.714h34.857q222.857 0 346.857-91.429t124-240.571q0-73.714-29.143-118.286 104.571 52.571 104.571 191.429zM876 236q0 150.857-126.286 244.571-124.571 92-349.714 92h-34.286q-18.286 0-34 12.571t-19.714 30.286l-41.714 180q-4.571 20.571-22.857 35.143t-39.429 14.571h-122.286q-17.714 0-30-11.143t-12.286-29.429q0-4.571 1.143-11.429l171.429-743.429q4.571-20.571 23.143-35.143t39.714-14.571h253.714q38.857 0 71.429 2.286t68.857 8.571 64.857 17.143 55.143 28.857 44.286 42.286 28.286 59.143 10.571 77.714z"
				],
				"attrs": [],
				"isMulticolor": false,
				"tags": [
					"paypal"
				],
				"defaultCode": 61933,
				"grid": 14
			},
			"attrs": [],
			"properties": {
				"name": "paypal",
				"order": 26,
				"id": 450,
				"prevSize": 28,
				"code": 61933
			},
			"setIdx": 0,
			"setId": 1,
			"iconIdx": 449
		},
		{
			"icon": {
				"paths": [
					"M1128.571 565.714h-78.857q8-21.143 37.714-102.286l1.714-5.143q2.286-5.714 5.714-14.857t5.143-14.857l6.857 31.429zM303.429 528.571l-33.143-168.571q-6.286-30.857-42.857-30.857h-153.143l-1.143 7.429q177.714 45.143 230.286 192zM405.714 329.143l-92.571 250.286-9.714-50.857q-14.857-40-48.571-74t-74.857-50.571l77.143 291.429h100l149.143-366.286h-100.571zM485.143 696h94.857l59.429-366.857h-94.857zM924 338.286q-39.429-15.429-85.143-15.429-70.286 0-114.857 33.714t-45.143 87.429q-0.571 58.286 82.857 99.429 27.429 13.143 38.286 23.429t10.857 22.286q0 17.143-17.143 26.286t-39.429 9.143q-49.143 0-89.143-18.857l-12.571-6.286-13.143 82.286q42.286 19.429 105.714 19.429 74.286 0.571 119.143-33.714t46-91.429q0-60.571-80-99.429-28-14.286-40.571-24t-12.571-21.714q0-12.571 14-22t40.286-9.429q40-0.571 70.857 13.714l8.571 4.571zM1166.857 329.143h-73.143q-37.143 0-49.714 30.857l-140.571 336h99.429l20-54.857h121.143q2.857 12.571 11.429 54.857h88zM1316.571 146.286v731.429q0 29.714-21.714 51.429t-51.429 21.714h-1170.286q-29.714 0-51.429-21.714t-21.714-51.429v-731.429q0-29.714 21.714-51.429t51.429-21.714h1170.286q29.714 0 51.429 21.714t21.714 51.429z"
				],
				"width": 1317,
				"attrs": [],
				"isMulticolor": false,
				"tags": [
					"cc-visa"
				],
				"defaultCode": 61936,
				"grid": 14
			},
			"attrs": [],
			"properties": {
				"name": "cc-visa",
				"order": 27,
				"id": 452,
				"prevSize": 28,
				"code": 61936
			},
			"setIdx": 0,
			"setId": 1,
			"iconIdx": 451
		},
		{
			"icon": {
				"paths": [
					"M383.429 533.143h-7.429q-26.857 0-26.857 18.286 0 12.571 11.429 12.571 9.714 0 16-8.571t6.857-22.286zM609.143 512.571h35.429v-1.714q0.571-2.286 0.286-3.714t-0.571-4-1.143-4.571-2.571-3.714-4.286-2.857-6.571-1.143q-16 0-20.571 21.714zM917.714 533.143h-6.857q-27.429 0-27.429 18.286 0 12.571 11.429 12.571 9.714 0 16-8.571t6.857-22.286zM1100 518.286q0-23.429-17.143-23.429-10.857 0-17.714 11.429t-6.857 29.143q0 24 16 24 11.429 0 18.571-11.429t7.143-29.714zM274.286 437.714h49.714l-25.143 149.714h-32l18.286-114.857-40.571 114.857h-22.286l-2.286-114.286-19.429 114.286h-30.286l25.143-149.714h46.286l1.143 93.143zM418.857 498.857q0 3.429-2.286 24-9.143 57.714-9.714 64.571h-26.857l0.571-12.571q-11.429 14.857-33.143 14.857-13.143 0-21.429-9.143t-8.286-24q0-22.286 14.857-34.571t41.714-12.286q8 0 13.143 0.571 0-1.714 0.286-3.143t0.571-2.571 0.286-1.714q0-11.429-20.571-11.429-16.571 0-33.714 5.714 0-2.286 4-27.429 21.714-6.286 38.286-6.286 42.286 0 42.286 35.429zM508 465.714l-4.571 28q-12.571-1.714-23.429-1.714-15.429 0-15.429 9.714 0 4.571 2.571 6.857t12.286 6.286q22.857 10.857 22.857 34.286 0 41.143-49.714 40.571-19.429 0-33.143-3.429 0-1.143 4-28 16.571 4.571 29.143 4.571 18.286 0 18.286-10.857 0-4-2.571-6.571t-12.286-7.143q-24.571-11.429-24.571-33.714 0-41.143 48-41.143 17.143 0 28.571 2.286zM558.286 465.714h16l-4 29.714h-16.571q-1.143 9.714-3.714 23.143t-4 22-1.429 10.286q0 9.143 10.857 9.143 4.571 0 9.143-1.143l-4.571 26.857q-12 4-22.857 4-24.571 0-25.714-26.857 0-6.857 4.571-32 1.714-11.429 14.286-83.429h31.429zM674.286 507.429q0 13.143-4 29.714h-63.429q-1.714 12.571 5.714 18.857t21.714 6.286q17.143 0 33.143-8l-5.143 30.857q-17.143 4.571-32.571 4.571-54.286 0-54.286-54.286 0-31.429 15.714-51.714t39.714-20.286q20 0 31.714 12t11.714 32zM753.714 465.143q-7.429 13.143-12.571 35.429-12.571-1.143-17.714 13.714t-14.286 73.143h-32l1.714-8q12.571-74.286 16.571-113.714h29.143l-1.714 18.857q8-12 14.571-16.857t16.286-2.571zM860.571 441.714l-5.143 32.571q-16-8-28.571-8-17.714 0-29.143 15.714t-11.429 40.286q0 17.143 7.714 26.857t22 9.714q12 0 27.429-7.429l-5.714 33.714q-16 4.571-28.571 4.571-25.714 0-40.857-17.429t-15.143-47.143q0-40 20.286-65.429t52.286-25.429q14.857 0 34.857 7.429zM953.143 498.857q0 10.286-2.286 24-7.429 45.143-9.714 64.571h-26.286l0.571-12.571q-11.429 14.857-33.714 14.857-13.143 0-21.143-9.143t-8-24q0-22.286 14.571-34.571t41.429-12.286q8.571 0 13.143 0.571 1.143-4 1.143-7.429 0-11.429-20.571-11.429-16.571 0-33.714 5.714 0-2.286 4.571-27.429 21.714-6.286 38.286-6.286 41.714 0 41.714 35.429zM1033.714 465.143q-8 13.714-12 35.429-13.143-1.143-18 13.143t-14.571 73.714h-32l1.714-8q10.857-59.429 16.571-113.714h29.714q0 6.286-2.286 18.857 8.571-12 15.143-16.857t15.714-2.571zM1114.286 437.714h32l-24.571 149.714h-30.286l1.714-10.857q-13.143 13.143-29.714 13.143-17.714 0-28.286-13.714t-10.571-36.571q0-30.286 15.714-52.571t36.857-22.286q17.714 0 30.286 16.571zM1177.714 512q0-84.571-41.429-156t-113.143-113.143-156.286-41.714q-103.429 0-187.429 62.857 72.571 66.286 97.714 162.286h-28.571q-25.143-85.714-90.286-144.571-65.143 58.857-90.286 144.571h-28.571q25.143-96 97.714-162.286-84-62.857-187.429-62.857-84.571 0-156.286 41.714t-113.143 113.143-41.429 156 41.429 156 113.143 113.143 156.286 41.714q103.429 0 187.429-62.857-68.571-63.429-94.286-150.857h28.571q26.286 78.857 86.857 133.143 60.571-54.286 86.857-133.143h28.571q-25.714 87.429-94.286 150.857 84 62.857 187.429 62.857 84.571 0 156.286-41.714t113.143-113.143 41.429-156zM1316.571 146.286v731.429q0 29.714-21.714 51.429t-51.429 21.714h-1170.286q-29.714 0-51.429-21.714t-21.714-51.429v-731.429q0-29.714 21.714-51.429t51.429-21.714h1170.286q29.714 0 51.429 21.714t21.714 51.429z"
				],
				"width": 1317,
				"attrs": [],
				"isMulticolor": false,
				"tags": [
					"cc-mastercard"
				],
				"defaultCode": 61937,
				"grid": 14
			},
			"attrs": [],
			"properties": {
				"name": "cc-mastercard",
				"order": 28,
				"id": 453,
				"prevSize": 28,
				"code": 61937
			},
			"setIdx": 0,
			"setId": 1,
			"iconIdx": 452
		},
		{
			"icon": {
				"paths": [
					"M184 484h-8.571q-10.857 0-10.857-10.286 0-16 10.857-48.571 2.857-8.571 8.571-11.143t16-2.571q44 0 44 28 0 23.429-17.429 34t-42.571 10.571zM379.429 576q-26.857 0-26.857-16.571 0-35.429 70.286-35.429l1.714 1.714q-2.857 50.286-45.143 50.286zM821.714 485.143h-8.571q-10.857 0-10.857-10.857 0-16 10.857-48.571 2.857-8.571 8.286-10.857t16.286-2.286q44 0 44 28 0 23.429-17.429 34t-42.571 10.571zM1017.143 576.571q-26.857 0-26.857-17.143 0-35.429 70.286-35.429l1.714 1.714q-2.857 50.857-45.143 50.857zM213.143 366.857h-73.143q-4.571 0-8.286 2.286t-4.857 4.286-4 7.143q-1.714 4-25.714 108.571t-24 109.714q0 4 3.143 7.143t7.714 3.143h35.429q14.286 0 18.571-19.714l8.571-39.429t18.571-19.714q26.857 0 50-4.286t46-14 36.286-30 13.429-48.286q0-20.571-8.286-34.857t-23.429-20.857-30.571-8.857-35.429-2.286zM410.857 421.714q-21.714 0-42.286 3.429-1.143 0-4.857 0.571t-5.143 0.857l-4.286 0.857t-4.286 1.143-3.714 1.714-3.714 2.286-2.857 2.857-2.571 4-2.286 5.143q-5.143 16.571-5.143 22.286t5.143 5.714q2.857 0 12.286-2.857t11.143-3.429q17.143-4.571 33.143-4.571 42.286 0 42.286 20.571 0 6.286-5.714 8-4.571 1.143-10.286 1.714t-12.286 0.857-10 0.857q-21.714 2.286-36.857 5.714t-32.286 11.143-26 22.286-8.857 35.714q0 21.714 14.857 34t36.571 12.286q13.714 0 26-3.714t18.857-7.429 22-13.429q-1.714 4-1.714 8.571t3.143 7.714 7.143 3.143h32q0.571-0.571 4-2t4.286-2 2.857-2 2.857-3.143 1.429-4.571l25.714-110.857q2.286-7.429 2.286-17.143 0-46.286-82.857-46.286zM712.571 424.571h-42.286q-12.571 0-22.286 13.143-2.857 4-16.857 29.143t-26.571 46.571-14.857 22l-2.857-2.286q0-44-15.429-94.857-0.571-2.857-2-4.857t-3.429-3.714-3.714-2.857-4.857-1.714-4.857-0.857-5.429-0.571-5.143-0.286h-10.571q-21.714 0-21.714 12l0.571 2.857q2.857 30.286 14.286 86.286t14.286 81.714q1.143 9.143 1.143 13.714 0 10.857-17.429 35.143t-17.429 33.429q0 7.429 22.857 7.429 34.857 0 43.429-14.286l140-237.143q5.714-11.429 5.714-14.857 0-5.143-4.571-5.143zM850.857 368h-73.714q-10.286 0-16.571 13.143-3.429 7.429-26.571 109.429t-23.143 108.857q0 11.429 24.571 11.429h14.571t5.429-0.571 4.857-1.143 4.857-1.714 3.714-2.571 3.143-3.429 1.714-4.857l12-52q1.143-5.714 6-9.714t11.143-4q26.857 0 50-4t46-14 36.286-30 13.429-48q0-20.571-8.286-34.857t-23.429-20.857-30.571-8.857-35.429-2.286zM1048.571 421.714q-14.857 0-42.286 3.429-21.714 3.429-27.429 9.143-4 4.571-6.286 10.857-4.571 13.714-4.571 22.286 0 5.714 4.571 5.714 0.571 0 23.429-6.857 17.143-4.571 33.143-4.571 42.286 0 42.286 20.571 0 6.857-5.714 8-2.286 0.571-32.571 4-21.714 2.286-36.857 5.714t-32.286 11.143-26 22.286-8.857 35.714 14.857 33.429 36.571 12.286q13.714 0 25.714-3.429t19.429-7.429 21.714-13.714q-1.714 8.571-1.714 9.143 0 2.857 1.143 4.857t3.714 3.143 4.571 2 6 1.143 5.429 0.286h10q24 0 27.429-14.286l25.714-110.857q1.714-8.571 1.714-17.714 0-46.286-82.857-46.286zM1232.571 369.714h-31.429q-14.286 0-18.857 22.857-5.714 25.143-20.857 95.429t-24.286 108.571v2.857q0 9.143 9.143 10.286h33.143q5.714 0 10.571-3.714t6-9.429l47.429-213.714h-0.571l0.571-2.857q0-4-3.143-7.143t-7.714-3.143zM1316.571 146.286v731.429q0 29.714-21.714 51.429t-51.429 21.714h-1170.286q-29.714 0-51.429-21.714t-21.714-51.429v-731.429q0-29.714 21.714-51.429t51.429-21.714h1170.286q29.714 0 51.429 21.714t21.714 51.429z"
				],
				"width": 1317,
				"attrs": [],
				"isMulticolor": false,
				"tags": [
					"cc-paypal"
				],
				"defaultCode": 61940,
				"grid": 14
			},
			"attrs": [],
			"properties": {
				"name": "cc-paypal",
				"order": 29,
				"id": 456,
				"prevSize": 28,
				"code": 61940
			},
			"setIdx": 0,
			"setId": 1,
			"iconIdx": 455
		},
		{
			"icon": {
				"paths": [
					"M402.286 512q-90.857 0-155.143-64.286t-64.286-155.143 64.286-155.143 155.143-64.286 155.143 64.286 64.286 155.143-64.286 155.143-155.143 64.286zM950.857 585.143h201.143q7.429 0 12.857 5.429t5.429 12.857v109.714q0 7.429-5.429 12.857t-12.857 5.429h-201.143v201.143q0 7.429-5.429 12.857t-12.857 5.429h-109.714q-7.429 0-12.857-5.429t-5.429-12.857v-201.143h-201.143q-7.429 0-12.857-5.429t-5.429-12.857v-109.714q0-7.429 5.429-12.857t12.857-5.429h201.143v-201.143q0-7.429 5.429-12.857t12.857-5.429h109.714q7.429 0 12.857 5.429t5.429 12.857v201.143zM530.286 713.143q0 29.714 21.714 51.429t51.429 21.714h146.286v136q-38.857 28.571-97.714 28.571h-499.429q-69.143 0-110.857-39.429t-41.714-108.571q0-30.286 2-59.143t8-62.286 15.143-62 24.571-55.714 35.429-46.286 48.857-30.571 63.714-11.429q10.857 0 22.286 9.714 45.143 34.857 88.286 52.286t94 17.429 94-17.429 88.286-52.286q11.429-9.714 22.286-9.714 75.429 0 124 54.857h-127.429q-29.714 0-51.429 21.714t-21.714 51.429v109.714z"
				],
				"width": 1170,
				"attrs": [],
				"isMulticolor": false,
				"tags": [
					"user-plus"
				],
				"defaultCode": 62004,
				"grid": 14
			},
			"attrs": [],
			"properties": {
				"name": "user-plus",
				"order": 60,
				"id": 513,
				"prevSize": 28,
				"code": 62004
			},
			"setIdx": 0,
			"setId": 1,
			"iconIdx": 512
		},
		{
			"icon": {
				"paths": [
					"M402.286 512q-90.857 0-155.143-64.286t-64.286-155.143 64.286-155.143 155.143-64.286 155.143 64.286 64.286 155.143-64.286 155.143-155.143 64.286zM1017.714 694.857l142.286 142.286q5.143 5.143 5.143 13.143 0 7.429-5.143 12.571l-77.714 77.714q-5.143 5.143-12.571 5.143-8 0-13.143-5.143l-142.286-142.286-142.286 142.286q-5.143 5.143-13.143 5.143-7.429 0-12.571-5.143l-77.714-77.714q-5.143-5.143-5.143-12.571 0-8 5.143-13.143l142.286-142.286-142.286-142.286q-5.143-5.143-5.143-13.143 0-7.429 5.143-12.571l77.714-77.714q5.143-5.143 12.571-5.143 8 0 13.143 5.143l142.286 142.286 142.286-142.286q5.143-5.143 13.143-5.143 7.429 0 12.571 5.143l77.714 77.714q5.143 5.143 5.143 12.571 0 8-5.143 13.143zM733.143 694.857l-103.429 103.429q-21.143 21.143-21.143 52 0 30.286 21.143 51.429l47.429 47.429q-12 1.714-25.143 1.714h-499.429q-69.143 0-110.857-39.429t-41.714-108.571q0-30.286 2-59.143t8-62.286 15.143-62 24.571-55.714 35.429-46.286 48.857-30.571 63.714-11.429q10.857 0 22.286 9.714 88 69.714 182.286 69.714t182.286-69.714q11.429-9.714 22.286-9.714 16 0 32.571 3.429-16 15.429-23.429 28.571t-7.429 32q0 30.857 21.143 52z"
				],
				"width": 1170,
				"attrs": [],
				"isMulticolor": false,
				"tags": [
					"user-times"
				],
				"defaultCode": 62005,
				"grid": 14
			},
			"attrs": [],
			"properties": {
				"name": "user-times",
				"order": 61,
				"id": 514,
				"prevSize": 28,
				"code": 62005
			},
			"setIdx": 0,
			"setId": 1,
			"iconIdx": 513
		}
	],
	"height": 1024,
	"metadata": {
		"name": "icomoon"
	},
	"preferences": {
		"showGlyphs": true,
		"showQuickUse": true,
		"showQuickUse2": true,
		"showSVGs": true,
		"fontPref": {
			"prefix": "icon-",
			"metadata": {
				"fontFamily": "icomoon",
				"majorVersion": 1,
				"minorVersion": 0
			},
			"metrics": {
				"emSize": 1024,
				"baseline": 6.25,
				"whitespace": 50
			},
			"showSelector": true,
			"showMetrics": true,
			"showMetadata": false,
			"showVersion": false
		},
		"imagePref": {
			"prefix": "icon-",
			"png": true,
			"useClassSelector": true,
			"color": 4473924,
			"bgColor": 16777215
		},
		"historySize": 100,
		"showCodes": false,
		"showLiga": false
	}
}